module folder

go 1.19

require (
	cloud.google.com/go/compute v1.23.0 // indirect
	cloud.google.com/go/compute/metadata v0.2.3 // indirect
	github.com/golang/groupcache v0.0.0-20210331224755-41bb18bfe9da // indirect
	github.com/golang/protobuf v1.5.3 // indirect
	github.com/google/s2a-go v0.1.5 // indirect
	github.com/google/uuid v1.3.0 // indirect
	github.com/googleapis/enterprise-certificate-proxy v0.2.5 // indirect
	github.com/googleapis/gax-go/v2 v2.12.0 // indirect
	github.com/joho/godotenv v1.5.1 // indirect
	go.opencensus.io v0.24.0 // indirect
	golang.org/x/crypto v0.13.0 // indirect
	golang.org/x/net v0.15.0 // indirect
	golang.org/x/oauth2 v0.12.0 // indirect
	golang.org/x/sys v0.12.0 // indirect
	golang.org/x/text v0.13.0 // indirect
	google.golang.org/api v0.138.0 // indirect
	google.golang.org/appengine v1.6.7 // indirect
	google.golang.org/genproto/googleapis/rpc v0.0.0-20230807174057-1744710a1577 // indirect
	google.golang.org/grpc v1.57.0 // indirect
	google.golang.org/protobuf v1.31.0 // indirect
)
